"Flickr album title","Commons categories"
"Atlas Negative Collection Images","Atlas Negative Collection"
"Consolidated/Convair/General Dynamics Album","Consolidated, Convair, General Dynamics Album"
"Convair Negatives","Convair Negatives"
"General Dynamics Astronautics Stan Hodges Collection Images","General Dynamics Astronautics Stan Hodges Collection"
"General Dynamics BGM-109 Tomahawk Album","General Dynamics BGM-109 Tomahawk Album"